project_SPI/project_SPI.sim/sim_1/behav/xsim/dump.vcd
$date
   Sat May 22 21:07:13 2021
$end
$version
  2019.2
$end
$timescale
  1ps
$end
$scope module axi_tb $end
$var reg 1 ! ACLK $end
$var reg 1 " tv $end
$var reg 1 # tr $end
$var wire 32 $ DATA [31:0] $end
$scope module dut $end
$var wire 1 % ACLK $end
$var wire 1 & tv $end
$var wire 1 ' tr $end
$var wire 32 $ DATA [31:0] $end
$var reg 32 ( dout [31:0] $end
$var reg 3 ) state [2:0] $end
$var reg 4 * count [3:0] $end
$var parameter 32 + master_ready [31:0] $end
$var parameter 32 , slave_check [31:0] $end
$var parameter 32 - load_data [31:0] $end
$upscope $end
$upscope $end
$enddefinitions $end
#0
$dumpvars
1!
0"
0#
bx $
1%
0&
0'
bx (
b0 )
b0 *
b1 +
b0 ,
b10 -
$end
#5000
0!
0%
#10000
1!
1%
b1 )
#15000
0!
0%
#20000
1!
1#
1%
1'
b0 )
#25000
0!
0%
#30000
1!
1"
0#
1%
1&
0'
b1 )
#35000
0!
0%
#40000
1!
b10010000101010011010100100100 $
1%
b10010000101010011010100100100 (
b1 )
b1111 *
#45000
0!
0%
#50000
1!
1#
b11000000100010010101111010000001 $
1%
1'
b11000000100010010101111010000001 (
b1 )
b1110 *
#55000
0!
0%
#60000
1!
b10000100100001001101011000001001 $
1%
b10000100100001001101011000001001 (
b1 )
b1101 *
#65000
0!
0%
#70000
1!
b10110001111100000101011001100011 $
1%
b10110001111100000101011001100011 (
b1 )
b1100 *
#75000
0!
0%
#80000
1!
0"
1%
0&
b0 )
#85000
0!
0%
#90000
1!
1"
0#
1%
1&
0'
b1 )
#95000
0!
0%
#100000
1!
1#
b110101110010111101100001101 $
1%
1'
b110101110010111101100001101 (
b1 )
b1011 *
#105000
0!
0%
#110000
1!
b1000110110111111001100110001101 $
1%
b1000110110111111001100110001101 (
b1 )
b1010 *
#115000
0!
0%
#120000
1!
b10110010110000101000010001100101 $
1%
b10110010110000101000010001100101 (
b1 )
b1001 *
#125000
0!
0%
#130000
1!
b10001001001101110101001000010010 $
1%
b10001001001101110101001000010010 (
b1 )
b1000 *
#135000
0!
0%
#140000
1!
b111100111110001100000001 $
1%
b111100111110001100000001 (
b1 )
b111 *
#145000
0!
0%
#150000
1!
b110110101111100110100001101 $
1%
b110110101111100110100001101 (
b1 )
b110 *
#155000
0!
0%
#160000
1!
b111011001000111111000101110110 $
1%
b111011001000111111000101110110 (
b1 )
b101 *
#165000
0!
0%
#170000
1!
b11110100011011100110100111101 $
1%
b11110100011011100110100111101 (
b1 )
b100 *
#175000
0!
0%
#180000
1!
b1110110110101000101011111101101 $
1%
b1110110110101000101011111101101 (
b1 )
b11 *
#185000
0!
0%
#190000
1!
b1000110001011011111011110001100 $
1%
b1000110001011011111011110001100 (
b1 )
b10 *
